[{"ID":1,"first_name":"Zachariah","last_name":"Netherwood","email":"znetherwood0@tripadvisor.com","password":"SD2Va6TsnvKG"},
{"ID":2,"first_name":"Phineas","last_name":"Milella","email":"pmilella1@whitehouse.gov","password":"DgFsoYhu"},
{"ID":3,"first_name":"Madge","last_name":"Chaffe","email":"mchaffe2@engadget.com","password":"jSdd82w9T"},
{"ID":4,"first_name":"Sioux","last_name":"Durrans","email":"sdurrans3@gmpg.org","password":"Mb9BjM5"},
{"ID":5,"first_name":"Ashli","last_name":"Kasher","email":"akasher4@technorati.com","password":"F25UXK2rG"},
{"ID":6,"first_name":"Stefania","last_name":"Yggo","email":"syggo5@joomla.org","password":"Qpe0vWwlpsNd"},
{"ID":7,"first_name":"Daryl","last_name":"Baraja","email":"dbaraja6@wisc.edu","password":"ZqrJa0"},
{"ID":8,"first_name":"Alaine","last_name":"Winterton","email":"awinterton7@sina.com.cn","password":"PYixGLZlh"},
{"ID":9,"first_name":"Rosy","last_name":"Banane","email":"rbanane8@printfriendly.com","password":"wygzX7IO1ek"},
{"ID":10,"first_name":"Farris","last_name":"Izakof","email":"fizakof9@ftc.gov","password":"61Plnx3"}]